C:\Users\vpatidar\Documents\mini_project_group7\mini_project_group7\src\main\java\com\adobe\pms\rest\ProjectService.java
C:\Users\vpatidar\Documents\mini_project_group7\mini_project_group7\src\main\java\com\adobe\pms\dao\FetchException.java
C:\Users\vpatidar\Documents\mini_project_group7\mini_project_group7\src\main\java\com\adobe\pms\dao\jdbc\EmployeeDaoImpl.java
C:\Users\vpatidar\Documents\mini_project_group7\mini_project_group7\src\main\java\com\adobe\pms\rest\EmployeeService.java
C:\Users\vpatidar\Documents\mini_project_group7\mini_project_group7\src\main\java\com\adobe\pms\dao\jdbc\ProjectDaoImpl.java
C:\Users\vpatidar\Documents\mini_project_group7\mini_project_group7\src\main\java\com\adobe\pms\client\ProjectManagementSystem.java
C:\Users\vpatidar\Documents\mini_project_group7\mini_project_group7\src\main\java\com\adobe\pms\dao\PersistenceException.java
C:\Users\vpatidar\Documents\mini_project_group7\mini_project_group7\src\main\java\com\adobe\pms\dao\ProjectDao.java
C:\Users\vpatidar\Documents\mini_project_group7\mini_project_group7\src\main\java\com\adobe\pms\rest\ApplicationResource.java
C:\Users\vpatidar\Documents\mini_project_group7\mini_project_group7\src\main\java\com\adobe\pms\dao\EmployeeDao.java
C:\Users\vpatidar\Documents\mini_project_group7\mini_project_group7\src\main\java\com\adobe\pms\entity\Employee.java
C:\Users\vpatidar\Documents\mini_project_group7\mini_project_group7\src\main\java\com\adobe\pms\entity\Project.java
C:\Users\vpatidar\Documents\mini_project_group7\mini_project_group7\src\main\java\com\adobe\pms\dao\jdbc\DBUtil.java
C:\Users\vpatidar\Documents\mini_project_group7\mini_project_group7\src\main\java\com\adobe\pms\dao\jdbc\ConfigReader.java
